Validación EPSOC
…
La actual base cuenta con 160 casos recogidos entre el 2018-10-17 y el 2018-11-14.

3.1 Distribución de entrevistas

nrow(epsoc)

## [1] 160

epsoc %>% 
  add_count(region) %>% 
  add_count(region, sexo.seleccionado) %>% 
  select(n, nn, everything())

## # A tibble: 160 x 340
##        n    nn  folio personas.hogar nombre.seleccio… edad.selecciona…
##    <int> <int>  <dbl>          <dbl> <chr>                       <dbl>
##  1    60    34 200139              4 solange                        43
##  2    60    34 200162              5 ruby                           19
##  3    60    34 200220              3 isabel                         50
##  4    60    34 200238              4 jessica                        47
##  5    60    34 200246              7 wendy                          36
##  6    60    26 200253              3 cesar                          44
##  7    60    34 200261              4 lina                           53
##  8    60    34 200337              4 constanza                      25
##  9    60    26 200352              4 luis                           47
## 10    60    34 200444              2 selma                          58
## # ... with 150 more rows, and 334 more variables:
## #   sexo.seleccionado <dbl+lbl>, situacion.laboral.seleccionado <dbl+lbl>,
## #   sbj.num <dbl>, date <chr>, srvyr <chr>, duration <chr>, upload <chr>,
## #   latitude <dbl>, longitude <dbl>, status <chr>, i.1.grupo <chr>,
## #   i.1.longitud <chr>, i.1.latitud <chr>, i.1.orden <chr>,
## #   i.1.folio.tablet <chr>, sexo.enc <dbl+lbl>, enc.edad <date>,
## #   time1 <chr>, i.1.a1 <dbl+lbl>, i.2.a1 <dbl+lbl>, i.3.a1 <dbl+lbl>,
## #   i.4.a1 <dbl+lbl>, i.5.a1 <dbl+lbl>, i.6.a1 <dbl+lbl>,
## #   i.7.a1 <dbl+lbl>, i.8.a1 <dbl+lbl>, i.9.a1 <dbl+lbl>,
…
